{
  "name": "loja",
  "plural": "lojas",
  "base": "PersistedModel",
  "idInjection": true,
  "options": {
    "validateUpsert": true
  },
  "properties": {
    "nome": {
      "type": "string",
      "required": true,
      "default": "-"
    },
    "endereco": {
      "type": "string",
      "required": true,
      "default": "-"
    }
  },
  "validations": [],
  "relations": {},
  "acls": [],
  "methods": {}
}
